{
	"info": {
		"_postman_id": "eea6f836-992d-487d-a5e1-979a477646ae",
		"name": "Demo API REST",
		"schema": "https://schema.getpostman.com/json/collection/v2.1.0/collection.json"
	},
	"item": [
		{
			"name": "Agregar Cliente",
			"event": [
				{
					"listen": "prerequest",
					"script": {
						"exec": [
							"// Generar un documento aleatorio.",
							"const documento = Math.trunc(12345678 + Math.random() * 8888);",
							"",
							"",
							"// generar un nombre completo aleatorio.",
							"const apellidos = [\"Gonzalez\",\"Jimenez\",\"Ramirez\",\"Ortiz\",\"Perez\"];",
							"const nombres = [\"Juan\",\"Ana\",\"Graciela\",\"Roberto\",\"Jaime\"];",
							"const unApellido = apellidos[_.random(apellidos.length - 1)];",
							"const unNombre = nombres[_.random(nombres.length - 1)];",
							"const nombreCompleto = unNombre + \" \" + unApellido;",
							"",
							"",
							"const correo_e = unNombre + \".\" + unApellido + \"@micorreo.com\";",
							"",
							"",
							"const edad = _.random(18, 98);",
							"",
							"",
							"const a = 2021 - edad;",
							"const m = _.random(1, 12);",
							"const d = _.random(1, 28);",
							"const fechaNacimiento = a + \"/\" + m + \"/\" + d;",
							"",
							"",
							"const direccion = \"Santa Rosa de Lima N° \" + _.random(100,1079);",
							"",
							"",
							"const t1 = _.random(100,777);",
							"const t2 = _.random(100,777);",
							"const t3 = _.random(100,777);",
							"const telefono = t1 + \" \" + t2 + \" \" + t3;",
							"",
							"",
							"pm.globals.set(\"direccion\",direccion);",
							"pm.globals.set(\"telefono\", telefono);",
							"pm.globals.set(\"correo_electronico\", correo_e);",
							"pm.globals.set(\"nombreCompleto\", nombreCompleto);",
							"pm.globals.set(\"documento\", documento);",
							"pm.globals.set(\"edad\", edad);",
							"pm.globals.set(\"fechaNacimiento\", fechaNacimiento);",
							""
						],
						"type": "text/javascript"
					}
				}
			],
			"request": {
				"method": "POST",
				"header": [],
				"body": {
					"mode": "raw",
					"raw": "{\n    \"documento\":\"{{documento}}\",\n    \"nombre\":\"{{nombreCompleto}}\",\n    \"edad\":{{edad}},\n    \"fechaNacimiento\":\"{{fechaNacimiento}}\",\n    \"telefono\":\"{{telefono}}\",\n    \"correo\":\"{{correo_electronico}}\",\n    \"direccion\":\"{{direccion}}\"\n}",
					"options": {
						"raw": {
							"language": "json"
						}
					}
				},
				"url": {
					"raw": "http://localhost:9000/api/v1/clientes/",
					"protocol": "http",
					"host": [
						"localhost"
					],
					"port": "9000",
					"path": [
						"api",
						"v1",
						"clientes",
						""
					]
				}
			},
			"response": []
		},
		{
			"name": "Obtener Clientes",
			"request": {
				"method": "GET",
				"header": [],
				"url": {
					"raw": "http://localhost:9000/api/v1/clientes/",
					"protocol": "http",
					"host": [
						"localhost"
					],
					"port": "9000",
					"path": [
						"api",
						"v1",
						"clientes",
						""
					]
				}
			},
			"response": []
		},
		{
			"name": "Reemplazar Cliente 12345678",
			"request": {
				"method": "PUT",
				"header": [],
				"body": {
					"mode": "raw",
					"raw": "{\n    \"documento\" : \"98765432\",\n    \"nombre\" : \"Juan Rodrigez Ledesma\",\n    \"edad\" : 39,\n    \"fechaNacimiento\": \"23/01/1981\",\n    \"cuentas\": []\n}\n",
					"options": {
						"raw": {
							"language": "json"
						}
					}
				},
				"url": {
					"raw": "http://localhost:9000/api/v1/clientes/12345678",
					"protocol": "http",
					"host": [
						"localhost"
					],
					"port": "9000",
					"path": [
						"api",
						"v1",
						"clientes",
						"12345678"
					]
				}
			},
			"response": []
		},
		{
			"name": "Reemplazar Cliente 12345678 Copy",
			"request": {
				"method": "PATCH",
				"header": [],
				"body": {
					"mode": "raw",
					"raw": "{\n    \"documento\" : \"98765432\",\n    \"edad\" : 39,\n    \"fechaNacimiento\": \"23/01/1982\"\n}\n",
					"options": {
						"raw": {
							"language": "json"
						}
					}
				},
				"url": {
					"raw": "http://localhost:9000/api/v1/clientes/12345678",
					"protocol": "http",
					"host": [
						"localhost"
					],
					"port": "9000",
					"path": [
						"api",
						"v1",
						"clientes",
						"12345678"
					]
				}
			},
			"response": []
		},
		{
			"name": "Obtener Cliente 12345678",
			"request": {
				"method": "GET",
				"header": [],
				"url": {
					"raw": "http://localhost:9000/api/v1/clientes/12345678",
					"protocol": "http",
					"host": [
						"localhost"
					],
					"port": "9000",
					"path": [
						"api",
						"v1",
						"clientes",
						"12345678"
					]
				}
			},
			"response": []
		},
		{
			"name": "Borrar Cliente 12345678",
			"event": [
				{
					"listen": "prerequest",
					"script": {
						"exec": [
							""
						],
						"type": "text/javascript"
					}
				}
			],
			"request": {
				"method": "DELETE",
				"header": [],
				"url": {
					"raw": "http://localhost:9000/api/v1/clientes/12345678",
					"protocol": "http",
					"host": [
						"localhost"
					],
					"port": "9000",
					"path": [
						"api",
						"v1",
						"clientes",
						"12345678"
					]
				}
			},
			"response": []
		}
	]